com\employeemanagement\configuration\AppConfig.class
com\employeemanagement\configuration\HibernateConfiguration.class
com\employeemanagement\configuration\AppInitializer.class
com\employeemanagement\dao\EmployeeDao.class
com\employeemanagement\service\EmployeeServiceImpl.class
com\employeemanagement\controller\EmployeeController.class
com\employeemanagement\model\Employee.class
com\employeemanagement\dao\EmployeeDaoImpl.class
com\employeemanagement\service\EmployeeService.class
